16
36 184
0
31 20
41 5 3 8
3 8 4 49
4 49 57 53
4 49 7 202
7 202 195 198
195 198 186 8
186 8 39 5
56 54 56 157
57 106 158 162
6 80 33 121
192 146 87 91
56 55 133 30
157 30 185 7
57 51 158 101
20 50 63 25
110 165 120 137
